Untitled
…
Warning: There were 6 warnings in `dplyr::mutate()`.
The first warning was:
ℹ In argument: `est_sensitivities = list(estimate_sensitivies(sched))`.
ℹ In row 18.
Caused by warning in `summary.lm()`:
! essentially perfect fit: summary may be unreliable
ℹ Run `dplyr::last_dplyr_warnings()` to see the 5 remaining warnings.

# A tibble: 50 × 8
   d_sensitivity d_sensitivity_r a_sensitivity a_sensitivity_r
           <dbl>           <dbl>         <dbl>           <dbl>
 1          0               0             0               0   
 2          0.5             0.5           0.58            0.58
 3          0.3             0.3           0.9             0.9 
 4          0.62            0.62          0.26            0.26
 5          0.5             0.5           0               0   
 6          2.05            2.05         -0.37           -0.37
 7          0.34            0.34          0.32            0.32
 8          0               0             0.14            0.14
 9         -0.2            -0.2          -0.32           -0.32
10          0               0             0               0   
# ℹ 40 more rows
# ℹ 4 more variables: d_sensitivity_cat_r <chr>, a_sensitivity_cat_r <chr>,
#   atype <dbl+lbl>, dtype <dbl+lbl>
…
